{
    "action": "closed",
    "number": 47,
    "pull_request": {
        "url": "https://github.com/beubi/ubicycling/pulls/47",
        "id": 22532849,
        "html_url": "https://github.com/beubi/ubicycling/pull/47",
        "diff_url": "https://github.com/beubi/ubicycling/pull/47.diff",
        "patch_url": "https://github.com/beubi/ubicycling/pull/47.patch",
        "issue_url": "https://github.com/beubi/ubicycling/issues/47",
        "number": 47,
        "state": "open",
        "locked": false,
        "title": "Update the README with new information",
        "user": {
            "login": "beubi",
            "id": 6752317,
            "avatar_url": "https://avatars.githubusercontent.com/u/6752317?v=2",
            "gravatar_id": "",
            "url": "https://api.github.com/users/beubi",
            "html_url": "https://github.com/beubi",
            "followers_url": "https://api.github.com/users/beubi/followers",
            "following_url": "https://api.github.com/users/beubi/following{/other_user}",
            "gists_url": "https://api.github.com/users/beubi/gists{/gist_id}",
            "starred_url": "https://api.github.com/users/beubi/starred{/owner}{/repo}",
            "subscriptions_url": "https://api.github.com/users/beubi/subscriptions",
            "organizations_url": "https://api.github.com/users/beubi/orgs",
            "repos_url": "https://api.github.com/users/beubi/repos",
            "events_url": "https://api.github.com/users/beubi/events{/privacy}",
            "received_events_url": "https://api.github.com/users/beubi/received_events",
            "type": "User",
            "site_admin": false
        },
        "body": "This is a pretty simple change that we need to pull into master.",
        "created_at": "2014-10-10T00:09:50Z",
        "updated_at": "2014-10-10T00:09:50Z",
        "closed_at": null,
        "merged_at": null,
        "merge_commit_sha": "cd3ff078a350901f91f4c4036be74f91d0b0d5d5",
        "assignee": null,
        "milestone": null,
        "commits_url": "https://api.github.com/repos/beubi/ubicycling/pulls/47/commits",
        "review_comments_url": "https://api.github.com/repos/beubi/ubicycling/pulls/47/comments",
        "review_comment_url": "https://api.github.com/repos/beubi/ubicycling/pulls/comments/{number}",
        "comments_url": "https://api.github.com/repos/beubi/ubicycling/issues/47/comments",
        "statuses_url": "https://api.github.com/repos/beubi/ubicycling/statuses/05c588ba8cd510ecbe112d020f215facb17817a6",
        "head": {
            "label": "beubi:changes",
            "ref": "changes",
            "sha": "05c588ba8cd510ecbe112d020f215facb17817a6",
            "user": {
                "login": "beubi",
                "id": 6752317,
                "avatar_url": "https://avatars.githubusercontent.com/u/6752317?v=2",
                "gravatar_id": "",
                "url": "https://api.github.com/users/beubi",
                "html_url": "https://github.com/beubi",
                "followers_url": "https://api.github.com/users/beubi/followers",
                "following_url": "https://api.github.com/users/beubi/following{/other_user}",
                "gists_url": "https://api.github.com/users/beubi/gists{/gist_id}",
                "starred_url": "https://api.github.com/users/beubi/starred{/owner}{/repo}",
                "subscriptions_url": "https://api.github.com/users/beubi/subscriptions",
                "organizations_url": "https://api.github.com/users/beubi/orgs",
                "repos_url": "https://api.github.com/users/beubi/repos",
                "events_url": "https://api.github.com/users/beubi/events{/privacy}",
                "received_events_url": "https://api.github.com/users/beubi/received_events",
                "type": "User",
                "site_admin": false
            },
            "repo": {
                "id": 20000106,
                "name": "public-repo",
                "full_name": "beubi/ubicycling",
                "owner": {
                    "login": "beubi",
                    "id": 6752317,
                    "avatar_url": "https://avatars.githubusercontent.com/u/6752317?v=2",
                    "gravatar_id": "",
                    "url": "https://api.github.com/users/beubi",
                    "html_url": "https://github.com/beubi",
                    "followers_url": "https://api.github.com/users/beubi/followers",
                    "following_url": "https://api.github.com/users/beubi/following{/other_user}",
                    "gists_url": "https://api.github.com/users/beubi/gists{/gist_id}",
                    "starred_url": "https://api.github.com/users/beubi/starred{/owner}{/repo}",
                    "subscriptions_url": "https://api.github.com/users/beubi/subscriptions",
                    "organizations_url": "https://api.github.com/users/beubi/orgs",
                    "repos_url": "https://api.github.com/users/beubi/repos",
                    "events_url": "https://api.github.com/users/beubi/events{/privacy}",
                    "received_events_url": "https://api.github.com/users/beubi/received_events",
                    "type": "User",
                    "site_admin": false
                },
                "private": false,
                "html_url": "https://github.com/beubi/ubicycling",
                "description": "",
                "fork": false,
                "url": "https://api.github.com/repos/beubi/ubicycling",
                "forks_url": "https://api.github.com/repos/beubi/ubicycling/forks",
                "keys_url": "https://api.github.com/repos/beubi/ubicycling/keys{/key_id}",
                "collaborators_url": "https://api.github.com/repos/beubi/ubicycling/collaborators{/collaborator}",
                "teams_url": "https://api.github.com/repos/beubi/ubicycling/teams",
                "hooks_url": "https://api.github.com/repos/beubi/ubicycling/hooks",
                "issue_events_url": "https://api.github.com/repos/beubi/ubicycling/issues/events{/number}",
                "events_url": "https://api.github.com/repos/beubi/ubicycling/events",
                "assignees_url": "https://api.github.com/repos/beubi/ubicycling/assignees{/user}",
                "branches_url": "https://api.github.com/repos/beubi/ubicycling/branches{/branch}",
                "tags_url": "https://api.github.com/repos/beubi/ubicycling/tags",
                "blobs_url": "https://api.github.com/repos/beubi/ubicycling/git/blobs{/sha}",
                "git_tags_url": "https://api.github.com/repos/beubi/ubicycling/git/tags{/sha}",
                "git_refs_url": "https://api.github.com/repos/beubi/ubicycling/git/refs{/sha}",
                "trees_url": "https://api.github.com/repos/beubi/ubicycling/git/trees{/sha}",
                "statuses_url": "https://api.github.com/repos/beubi/ubicycling/statuses/{sha}",
                "languages_url": "https://api.github.com/repos/beubi/ubicycling/languages",
                "stargazers_url": "https://api.github.com/repos/beubi/ubicycling/stargazers",
                "contributors_url": "https://api.github.com/repos/beubi/ubicycling/contributors",
                "subscribers_url": "https://api.github.com/repos/beubi/ubicycling/subscribers",
                "subscription_url": "https://api.github.com/repos/beubi/ubicycling/subscription",
                "commits_url": "https://api.github.com/repos/beubi/ubicycling/commits{/sha}",
                "git_commits_url": "https://api.github.com/repos/beubi/ubicycling/git/commits{/sha}",
                "comments_url": "https://api.github.com/repos/beubi/ubicycling/comments{/number}",
                "issue_comment_url": "https://api.github.com/repos/beubi/ubicycling/issues/comments/{number}",
                "contents_url": "https://api.github.com/repos/beubi/ubicycling/contents/{+path}",
                "compare_url": "https://api.github.com/repos/beubi/ubicycling/compare/{base}...{head}",
                "merges_url": "https://api.github.com/repos/beubi/ubicycling/merges",
                "archive_url": "https://api.github.com/repos/beubi/ubicycling/{archive_format}{/ref}",
                "downloads_url": "https://api.github.com/repos/beubi/ubicycling/downloads",
                "issues_url": "https://api.github.com/repos/beubi/ubicycling/issues{/number}",
                "pulls_url": "https://api.github.com/repos/beubi/ubicycling/pulls{/number}",
                "milestones_url": "https://api.github.com/repos/beubi/ubicycling/milestones{/number}",
                "notifications_url": "https://api.github.com/repos/beubi/ubicycling/notifications{?since,all,participating}",
                "labels_url": "https://api.github.com/repos/beubi/ubicycling/labels{/name}",
                "releases_url": "https://api.github.com/repos/beubi/ubicycling/releases{/id}",
                "created_at": "2014-05-20T22:39:43Z",
                "updated_at": "2014-07-25T16:37:51Z",
                "pushed_at": "2014-10-10T00:09:49Z",
                "git_url": "git://github.com/beubi/ubicycling.git",
                "ssh_url": "git@github.com:beubi/ubicycling.git",
                "clone_url": "https://github.com/beubi/ubicycling.git",
                "svn_url": "https://github.com/beubi/ubicycling",
                "homepage": null,
                "size": 665,
                "stargazers_count": 0,
                "watchers_count": 0,
                "language": null,
                "has_issues": true,
                "has_downloads": true,
                "has_wiki": true,
                "has_pages": true,
                "forks_count": 0,
                "mirror_url": null,
                "open_issues_count": 25,
                "forks": 0,
                "open_issues": 25,
                "watchers": 0,
                "default_branch": "master"
            }
        },
        "base": {
            "label": "beubi:master",
            "ref": "master",
            "sha": "69a8b72e2d3d955075d47f03d902929dcaf74033",
            "user": {
                "login": "beubi",
                "id": 6752317,
                "avatar_url": "https://avatars.githubusercontent.com/u/6752317?v=2",
                "gravatar_id": "",
                "url": "https://api.github.com/users/beubi",
                "html_url": "https://github.com/beubi",
                "followers_url": "https://api.github.com/users/beubi/followers",
                "following_url": "https://api.github.com/users/beubi/following{/other_user}",
                "gists_url": "https://api.github.com/users/beubi/gists{/gist_id}",
                "starred_url": "https://api.github.com/users/beubi/starred{/owner}{/repo}",
                "subscriptions_url": "https://api.github.com/users/beubi/subscriptions",
                "organizations_url": "https://api.github.com/users/beubi/orgs",
                "repos_url": "https://api.github.com/users/beubi/repos",
                "events_url": "https://api.github.com/users/beubi/events{/privacy}",
                "received_events_url": "https://api.github.com/users/beubi/received_events",
                "type": "User",
                "site_admin": false
            },
            "repo": {
                "id": 20000106,
                "name": "public-repo",
                "full_name": "beubi/ubicycling",
                "owner": {
                    "login": "beubi",
                    "id": 6752317,
                    "avatar_url": "https://avatars.githubusercontent.com/u/6752317?v=2",
                    "gravatar_id": "",
                    "url": "https://api.github.com/users/beubi",
                    "html_url": "https://github.com/beubi",
                    "followers_url": "https://api.github.com/users/beubi/followers",
                    "following_url": "https://api.github.com/users/beubi/following{/other_user}",
                    "gists_url": "https://api.github.com/users/beubi/gists{/gist_id}",
                    "starred_url": "https://api.github.com/users/beubi/starred{/owner}{/repo}",
                    "subscriptions_url": "https://api.github.com/users/beubi/subscriptions",
                    "organizations_url": "https://api.github.com/users/beubi/orgs",
                    "repos_url": "https://api.github.com/users/beubi/repos",
                    "events_url": "https://api.github.com/users/beubi/events{/privacy}",
                    "received_events_url": "https://api.github.com/users/beubi/received_events",
                    "type": "User",
                    "site_admin": false
                },
                "private": false,
                "html_url": "https://github.com/beubi/ubicycling",
                "description": "",
                "fork": false,
                "url": "https://api.github.com/repos/beubi/ubicycling",
                "forks_url": "https://api.github.com/repos/beubi/ubicycling/forks",
                "keys_url": "https://api.github.com/repos/beubi/ubicycling/keys{/key_id}",
                "collaborators_url": "https://api.github.com/repos/beubi/ubicycling/collaborators{/collaborator}",
                "teams_url": "https://api.github.com/repos/beubi/ubicycling/teams",
                "hooks_url": "https://api.github.com/repos/beubi/ubicycling/hooks",
                "issue_events_url": "https://api.github.com/repos/beubi/ubicycling/issues/events{/number}",
                "events_url": "https://api.github.com/repos/beubi/ubicycling/events",
                "assignees_url": "https://api.github.com/repos/beubi/ubicycling/assignees{/user}",
                "branches_url": "https://api.github.com/repos/beubi/ubicycling/branches{/branch}",
                "tags_url": "https://api.github.com/repos/beubi/ubicycling/tags",
                "blobs_url": "https://api.github.com/repos/beubi/ubicycling/git/blobs{/sha}",
                "git_tags_url": "https://api.github.com/repos/beubi/ubicycling/git/tags{/sha}",
                "git_refs_url": "https://api.github.com/repos/beubi/ubicycling/git/refs{/sha}",
                "trees_url": "https://api.github.com/repos/beubi/ubicycling/git/trees{/sha}",
                "statuses_url": "https://api.github.com/repos/beubi/ubicycling/statuses/{sha}",
                "languages_url": "https://api.github.com/repos/beubi/ubicycling/languages",
                "stargazers_url": "https://api.github.com/repos/beubi/ubicycling/stargazers",
                "contributors_url": "https://api.github.com/repos/beubi/ubicycling/contributors",
                "subscribers_url": "https://api.github.com/repos/beubi/ubicycling/subscribers",
                "subscription_url": "https://api.github.com/repos/beubi/ubicycling/subscription",
                "commits_url": "https://api.github.com/repos/beubi/ubicycling/commits{/sha}",
                "git_commits_url": "https://api.github.com/repos/beubi/ubicycling/git/commits{/sha}",
                "comments_url": "https://api.github.com/repos/beubi/ubicycling/comments{/number}",
                "issue_comment_url": "https://api.github.com/repos/beubi/ubicycling/issues/comments/{number}",
                "contents_url": "https://api.github.com/repos/beubi/ubicycling/contents/{+path}",
                "compare_url": "https://api.github.com/repos/beubi/ubicycling/compare/{base}...{head}",
                "merges_url": "https://api.github.com/repos/beubi/ubicycling/merges",
                "archive_url": "https://api.github.com/repos/beubi/ubicycling/{archive_format}{/ref}",
                "downloads_url": "https://api.github.com/repos/beubi/ubicycling/downloads",
                "issues_url": "https://api.github.com/repos/beubi/ubicycling/issues{/number}",
                "pulls_url": "https://api.github.com/repos/beubi/ubicycling/pulls{/number}",
                "milestones_url": "https://api.github.com/repos/beubi/ubicycling/milestones{/number}",
                "notifications_url": "https://api.github.com/repos/beubi/ubicycling/notifications{?since,all,participating}",
                "labels_url": "https://api.github.com/repos/beubi/ubicycling/labels{/name}",
                "releases_url": "https://api.github.com/repos/beubi/ubicycling/releases{/id}",
                "created_at": "2014-05-20T22:39:43Z",
                "updated_at": "2014-07-25T16:37:51Z",
                "pushed_at": "2014-10-10T00:09:49Z",
                "git_url": "git://github.com/beubi/ubicycling.git",
                "ssh_url": "git@github.com:beubi/ubicycling.git",
                "clone_url": "https://github.com/beubi/ubicycling.git",
                "svn_url": "https://github.com/beubi/ubicycling",
                "homepage": null,
                "size": 665,
                "stargazers_count": 0,
                "watchers_count": 0,
                "language": null,
                "has_issues": true,
                "has_downloads": true,
                "has_wiki": true,
                "has_pages": true,
                "forks_count": 0,
                "mirror_url": null,
                "open_issues_count": 25,
                "forks": 0,
                "open_issues": 25,
                "watchers": 0,
                "default_branch": "master"
            }
        },
        "_links": {
            "self": {
                "href": "https://api.github.com/repos/beubi/ubicycling/pulls/47"
            },
            "html": {
                "href": "https://github.com/beubi/ubicycling/pull/47"
            },
            "issue": {
                "href": "https://api.github.com/repos/beubi/ubicycling/issues/47"
            },
            "comments": {
                "href": "https://api.github.com/repos/beubi/ubicycling/issues/47/comments"
            },
            "review_comments": {
                "href": "https://api.github.com/repos/beubi/ubicycling/pulls/47/comments"
            },
            "review_comment": {
                "href": "https://api.github.com/repos/beubi/ubicycling/pulls/comments/{number}"
            },
            "commits": {
                "href": "https://api.github.com/repos/beubi/ubicycling/pulls/47/commits"
            },
            "statuses": {
                "href": "https://api.github.com/repos/beubi/ubicycling/statuses/05c588ba8cd510ecbe112d020f215facb17817a6"
            }
        },
        "merged": false,
        "mergeable": true,
        "mergeable_state": "clean",
        "merged_by": null,
        "comments": 0,
        "review_comments": 1,
        "commits": 1,
        "additions": 2,
        "deletions": 0,
        "changed_files": 1
    },
    "repository": {
        "id": 20000106,
        "name": "public-repo",
        "full_name": "beubi/ubicycling",
        "owner": {
            "login": "beubi",
            "id": 6752317,
            "avatar_url": "https://avatars.githubusercontent.com/u/6752317?v=2",
            "gravatar_id": "",
            "url": "https://api.github.com/users/beubi",
            "html_url": "https://github.com/beubi",
            "followers_url": "https://api.github.com/users/beubi/followers",
            "following_url": "https://api.github.com/users/beubi/following{/other_user}",
            "gists_url": "https://api.github.com/users/beubi/gists{/gist_id}",
            "starred_url": "https://api.github.com/users/beubi/starred{/owner}{/repo}",
            "subscriptions_url": "https://api.github.com/users/beubi/subscriptions",
            "organizations_url": "https://api.github.com/users/beubi/orgs",
            "repos_url": "https://api.github.com/users/beubi/repos",
            "events_url": "https://api.github.com/users/beubi/events{/privacy}",
            "received_events_url": "https://api.github.com/users/beubi/received_events",
            "type": "User",
            "site_admin": false
        },
        "private": false,
        "html_url": "https://github.com/beubi/ubicycling",
        "description": "",
        "fork": false,
        "url": "https://github.com/beubi/ubicycling",
        "forks_url": "https://api.github.com/repos/beubi/ubicycling/forks",
        "keys_url": "https://api.github.com/repos/beubi/ubicycling/keys{/key_id}",
        "collaborators_url": "https://api.github.com/repos/beubi/ubicycling/collaborators{/collaborator}",
        "teams_url": "https://api.github.com/repos/beubi/ubicycling/teams",
        "hooks_url": "https://api.github.com/repos/beubi/ubicycling/hooks",
        "issue_events_url": "https://api.github.com/repos/beubi/ubicycling/issues/events{/number}",
        "events_url": "https://api.github.com/repos/beubi/ubicycling/events",
        "assignees_url": "https://api.github.com/repos/beubi/ubicycling/assignees{/user}",
        "branches_url": "https://api.github.com/repos/beubi/ubicycling/branches{/branch}",
        "tags_url": "https://api.github.com/repos/beubi/ubicycling/tags",
        "blobs_url": "https://api.github.com/repos/beubi/ubicycling/git/blobs{/sha}",
        "git_tags_url": "https://api.github.com/repos/beubi/ubicycling/git/tags{/sha}",
        "git_refs_url": "https://api.github.com/repos/beubi/ubicycling/git/refs{/sha}",
        "trees_url": "https://api.github.com/repos/beubi/ubicycling/git/trees{/sha}",
        "statuses_url": "https://api.github.com/repos/beubi/ubicycling/statuses/{sha}",
        "languages_url": "https://api.github.com/repos/beubi/ubicycling/languages",
        "stargazers_url": "https://api.github.com/repos/beubi/ubicycling/stargazers",
        "contributors_url": "https://api.github.com/repos/beubi/ubicycling/contributors",
        "subscribers_url": "https://api.github.com/repos/beubi/ubicycling/subscribers",
        "subscription_url": "https://api.github.com/repos/beubi/ubicycling/subscription",
        "commits_url": "https://api.github.com/repos/beubi/ubicycling/commits{/sha}",
        "git_commits_url": "https://api.github.com/repos/beubi/ubicycling/git/commits{/sha}",
        "comments_url": "https://api.github.com/repos/beubi/ubicycling/comments{/number}",
        "issue_comment_url": "https://api.github.com/repos/beubi/ubicycling/issues/comments/{number}",
        "contents_url": "https://api.github.com/repos/beubi/ubicycling/contents/{+path}",
        "compare_url": "https://api.github.com/repos/beubi/ubicycling/compare/{base}...{head}",
        "merges_url": "https://api.github.com/repos/beubi/ubicycling/merges",
        "archive_url": "https://api.github.com/repos/beubi/ubicycling/{archive_format}{/ref}",
        "downloads_url": "https://api.github.com/repos/beubi/ubicycling/downloads",
        "issues_url": "https://api.github.com/repos/beubi/ubicycling/issues{/number}",
        "pulls_url": "https://api.github.com/repos/beubi/ubicycling/pulls{/number}",
        "milestones_url": "https://api.github.com/repos/beubi/ubicycling/milestones{/number}",
        "notifications_url": "https://api.github.com/repos/beubi/ubicycling/notifications{?since,all,participating}",
        "labels_url": "https://api.github.com/repos/beubi/ubicycling/labels{/name}",
        "releases_url": "https://api.github.com/repos/beubi/ubicycling/releases{/id}",
        "created_at": "2014-05-20T22:39:43Z",
        "updated_at": "2014-07-25T16:37:51Z",
        "pushed_at": "2014-10-10T00:09:49Z",
        "git_url": "git://github.com/beubi/ubicycling.git",
        "ssh_url": "git@github.com:beubi/ubicycling.git",
        "clone_url": "https://github.com/beubi/ubicycling.git",
        "svn_url": "https://github.com/beubi/ubicycling",
        "homepage": null,
        "size": 665,
        "stargazers_count": 0,
        "watchers_count": 0,
        "language": null,
        "has_issues": true,
        "has_downloads": true,
        "has_wiki": true,
        "has_pages": true,
        "forks_count": 0,
        "mirror_url": null,
        "open_issues_count": 25,
        "forks": 0,
        "open_issues": 25,
        "watchers": 0,
        "default_branch": "master"
    },
    "sender": {
        "login": "beubi",
        "id": 6752317,
        "avatar_url": "https://avatars.githubusercontent.com/u/6752317?v=2",
        "gravatar_id": "",
        "url": "https://api.github.com/users/beubi",
        "html_url": "https://github.com/beubi",
        "followers_url": "https://api.github.com/users/beubi/followers",
        "following_url": "https://api.github.com/users/beubi/following{/other_user}",
        "gists_url": "https://api.github.com/users/beubi/gists{/gist_id}",
        "starred_url": "https://api.github.com/users/beubi/starred{/owner}{/repo}",
        "subscriptions_url": "https://api.github.com/users/beubi/subscriptions",
        "organizations_url": "https://api.github.com/users/beubi/orgs",
        "repos_url": "https://api.github.com/users/beubi/repos",
        "events_url": "https://api.github.com/users/beubi/events{/privacy}",
        "received_events_url": "https://api.github.com/users/beubi/received_events",
        "type": "User",
        "site_admin": false
    }
}